{
  "prepare_queue": {
    "installed": [],
    "uninstalled": []
  },
  "config_munge": {
    "files": {}
  },
  "installed_plugins": {
    "cordova-plugin-androidx": {
      "PACKAGE_NAME": "com.hobbyit.applore"
    },
    "cordova-plugin-androidx-adapter": {
      "PACKAGE_NAME": "com.hobbyit.applore"
    },
    "cordova-plugin-camera": {
      "PACKAGE_NAME": "com.hobbyit.applore"
    },
    "cordova-plugin-device": {
      "PACKAGE_NAME": "com.hobbyit.applore"
    },
    "cordova-plugin-file": {
      "PACKAGE_NAME": "com.hobbyit.applore"
    },
    "cordova-plugin-filepath": {
      "PACKAGE_NAME": "com.hobbyit.applore"
    },
    "cordova-plugin-firebase-authentication": {
      "PACKAGE_NAME": "com.hobbyit.applore"
    },
    "cordova-plugin-geolocation": {
      "PACKAGE_NAME": "com.hobbyit.applore"
    },
    "cordova-plugin-ionic-keyboard": {
      "PACKAGE_NAME": "com.hobbyit.applore"
    },
    "cordova-plugin-ionic-webview": {
      "PACKAGE_NAME": "com.hobbyit.applore"
    },
    "cordova-plugin-nativegeocoder": {
      "PACKAGE_NAME": "com.hobbyit.applore"
    },
    "cordova-plugin-sms-receive": {
      "PACKAGE_NAME": "com.hobbyit.applore"
    },
    "cordova-plugin-sms-retriever-manager": {
      "PACKAGE_NAME": "com.hobbyit.applore"
    },
    "cordova-plugin-splashscreen": {
      "PACKAGE_NAME": "com.hobbyit.applore"
    },
    "cordova-plugin-statusbar": {
      "PACKAGE_NAME": "com.hobbyit.applore"
    },
    "cordova-plugin-whitelist": {
      "PACKAGE_NAME": "com.hobbyit.applore"
    },
    "cordova-plugin-x-socialsharing": {
      "PACKAGE_NAME": "com.hobbyit.applore"
    },
    "com.razorpay.cordova": {
      "PACKAGE_NAME": "com.hobbyit.applore"
    },
    "cordova-plugin-googleplus": {
      "WEB_APPLICATION_CLIENT_ID": "861528652215-odndj9al5scfi1ol1mvesg88scuj1nrj.apps.googleusercontent.com",
      "PACKAGE_NAME": "com.hobbyit.applore"
    },
    "com-sarriaroman-photoviewer": {
      "PACKAGE_NAME": "com.hobbyit.applore"
    },
    "cordova-plugin-fcm-with-dependecy-updated": {
      "PACKAGE_NAME": "com.hobbyit.applore"
    }
  },
  "dependent_plugins": {
    "cordova-plugin-add-swift-support": {
      "PACKAGE_NAME": "com.hobbyit.applore"
    },
    "es6-promise-plugin": {
      "PACKAGE_NAME": "com.hobbyit.applore"
    },
    "cordova-support-android-plugin": {
      "PACKAGE_NAME": "com.hobbyit.applore"
    },
    "cordova-support-google-services": {
      "PACKAGE_NAME": "com.hobbyit.applore"
    }
  }
}
