{
  "cordova-plugin-whitelist": {
    "source": {
      "type": "registry",
      "id": "cordova-plugin-whitelist@1.3.3"
    },
    "is_top_level": true,
    "variables": {}
  },
  "cordova-plugin-statusbar": {
    "source": {
      "type": "registry",
      "id": "cordova-plugin-statusbar@2.4.2"
    },
    "is_top_level": true,
    "variables": {}
  },
  "cordova-plugin-device": {
    "source": {
      "type": "registry",
      "id": "cordova-plugin-device@2.0.2"
    },
    "is_top_level": true,
    "variables": {}
  },
  "cordova-plugin-splashscreen": {
    "source": {
      "type": "registry",
      "id": "cordova-plugin-splashscreen@5.0.2"
    },
    "is_top_level": true,
    "variables": {}
  },
  "cordova-plugin-ionic-webview": {
    "source": {
      "type": "registry",
      "id": "cordova-plugin-ionic-webview@^4.0.0"
    },
    "is_top_level": true,
    "variables": {
      "ANDROID_SUPPORT_ANNOTATIONS_VERSION": "27.+"
    }
  },
  "cordova-plugin-ionic-keyboard": {
    "source": {
      "type": "registry",
      "id": "cordova-plugin-ionic-keyboard@^2.2.0"
    },
    "is_top_level": true,
    "variables": {}
  },
  "cordova-support-android-plugin": {
    "source": {
      "type": "registry",
      "id": "cordova-support-android-plugin@~1.0.0"
    },
    "is_top_level": false,
    "variables": {}
  },
  "cordova-support-google-services": {
    "source": {
      "type": "registry",
      "id": "cordova-support-google-services@^1.3.2"
    },
    "is_top_level": false,
    "variables": {}
  },
  "cordova-plugin-sms-receive": {
    "source": {
      "type": "registry",
      "id": "cordova-plugin-sms-receive@^1.0.2"
    },
    "is_top_level": true,
    "variables": {}
  },
  "cordova-plugin-file": {
    "source": {
      "type": "registry",
      "id": "cordova-plugin-file@6.0.2"
    },
    "is_top_level": true,
    "variables": {}
  },
  "cordova-plugin-filepath": {
    "source": {
      "type": "registry",
      "id": "cordova-plugin-filepath"
    },
    "is_top_level": true,
    "variables": {}
  },
  "cordova-plugin-camera": {
    "source": {
      "type": "registry",
      "id": "cordova-plugin-camera@4.1.0"
    },
    "is_top_level": true,
    "variables": {}
  },
  "cordova-plugin-geolocation": {
    "source": {
      "type": "registry",
      "id": "cordova-plugin-geolocation@4.0.2"
    },
    "is_top_level": true,
    "variables": {}
  },
  "cordova-plugin-nativegeocoder": {
    "source": {
      "type": "registry",
      "id": "cordova-plugin-nativegeocoder"
    },
    "is_top_level": true,
    "variables": {
      "LOCATION_WHEN_IN_USE_DESCRIPTION": "Use geocoder service"
    }
  },
  "cordova-plugin-add-swift-support": {
    "source": {
      "type": "registry",
      "id": "cordova-plugin-add-swift-support@2.0.2"
    },
    "is_top_level": false,
    "variables": {}
  },
  "es6-promise-plugin": {
    "source": {
      "type": "registry",
      "id": "es6-promise-plugin@^4.1.0"
    },
    "is_top_level": false,
    "variables": {}
  },
  "cordova-plugin-sms-retriever-manager": {
    "source": {
      "type": "registry",
      "id": "cordova-plugin-sms-retriever-manager"
    },
    "is_top_level": true,
    "variables": {}
  },
  "cordova-plugin-x-socialsharing": {
    "source": {
      "type": "registry",
      "id": "cordova-plugin-x-socialsharing"
    },
    "is_top_level": true,
    "variables": {
      "PHOTO_LIBRARY_ADD_USAGE_DESCRIPTION": "This app requires photo library access to function properly.",
      "PHOTO_LIBRARY_USAGE_DESCRIPTION": "This app requires photo library access to function properly."
    }
  },
  "cordova-plugin-androidx": {
    "source": {
      "type": "registry",
      "id": "cordova-plugin-androidx"
    },
    "is_top_level": true,
    "variables": {}
  },
  "cordova-plugin-androidx-adapter": {
    "source": {
      "type": "registry",
      "id": "cordova-plugin-androidx-adapter"
    },
    "is_top_level": true,
    "variables": {}
  },
  "cordova-plugin-firebase-authentication": {
    "source": {
      "type": "registry",
      "id": "cordova-plugin-firebase-authentication@3.6.0"
    },
    "is_top_level": true,
    "variables": {}
  },
  "com.razorpay.cordova": {
    "source": {
      "type": "registry",
      "id": "com.razorpay.cordova"
    },
    "is_top_level": true,
    "variables": {}
  },
  "cordova-plugin-cocoapod-support": {
    "source": {
      "type": "registry",
      "id": "cordova-plugin-cocoapod-support"
    },
    "is_top_level": false,
    "variables": {}
  },
  "cordova-plugin-googleplus": {
    "source": {
      "type": "registry",
      "id": "cordova-plugin-googleplus"
    },
    "is_top_level": true,
    "variables": {
      "REVERSED_CLIENT_ID": "com.googleusercontent.apps.861528652215-odndj9al5scfi1ol1mvesg88scuj1nrj",
      "WEB_APPLICATION_CLIENT_ID": "861528652215-odndj9al5scfi1ol1mvesg88scuj1nrj.apps.googleusercontent.com"
    }
  },
  "com-sarriaroman-photoviewer": {
    "source": {
      "type": "registry",
      "id": "com-sarriaroman-photoviewer"
    },
    "is_top_level": true,
    "variables": {}
  },
  "cordova-plugin-fcm-with-dependecy-updated": {
    "source": {
      "type": "registry",
      "id": "cordova-plugin-fcm-with-dependecy-updated@4.2.0"
    },
    "is_top_level": true,
    "variables": {}
  }
}